<?xml version="1.0" encoding="UTF-8"?>
<CustomTab xmlns="http://soap.sforce.com/2006/04/metadata">
    <frameHeight>900</frameHeight>
    <hasSidebar>false</hasSidebar>
    <label>About Brainshark</label>
    <mobileReady>false</mobileReady>
    <motif>Custom21: Computer</motif>
    <url>https://presentation.brainshark.com/products/AppExchangeAboutTab.asp</url>
    <urlEncodingKey>UTF-8</urlEncodingKey>
</CustomTab>
