<?xml version="1.0" encoding="UTF-8"?>
<CustomTab xmlns="http://soap.sforce.com/2006/04/metadata">
    <frameHeight>1200</frameHeight>
    <hasSidebar>true</hasSidebar>
    <label>Brainshark Setup</label>
    <mobileReady>false</mobileReady>
    <motif>Custom19: Wrench</motif>
    <url>https://www.brainshark.com/BrainsharkCRM/config.aspx?ct=0&amp;cs={!API.Session_ID}&amp;ctwsurl={!API.Partner_Server_URL_90}</url>
    <urlEncodingKey>UTF-8</urlEncodingKey>
</CustomTab>
